2019-09-28 17:51:23.577 [main] INFO  com.epam.trainings.mvc.commands.CheckLifecycleCommand - com.epam.trainings.mvc.model.otherbeans.OtherBeanB@298a5e20
2019-09-28 17:51:23.581 [main] INFO  com.epam.trainings.mvc.commands.CheckLifecycleCommand - com.epam.trainings.mvc.model.otherbeans.OtherBeanC@33bc72d1
2019-09-28 17:51:23.581 [main] INFO  com.epam.trainings.mvc.commands.CheckLifecycleCommand - com.epam.trainings.mvc.model.otherbeans.OtherBeanC@33bc72d1
2019-09-28 17:51:23.582 [main] INFO  com.epam.trainings.mvc.commands.CheckLifecycleCommand - Unpacking data ...
2019-09-28 17:51:23.582 [main] INFO  com.epam.trainings.mvc.view.View - 1.Watch beans lifecycle
2019-09-28 17:51:37.112 [main] INFO  com.epam.trainings.mvc.view.View - 1.Watch beans lifecycle
2019-09-28 17:51:37.729 [main] INFO  com.epam.trainings.mvc.commands.CheckLifecycleCommand - com.epam.trainings.mvc.model.otherbeans.OtherBeanA@2ddc9a9f
2019-09-28 17:51:37.730 [main] INFO  com.epam.trainings.mvc.commands.CheckLifecycleCommand - com.epam.trainings.mvc.model.otherbeans.OtherBeanA@2ddc9a9f
2019-09-28 17:51:37.730 [main] INFO  com.epam.trainings.mvc.commands.CheckLifecycleCommand - com.epam.trainings.mvc.model.otherbeans.OtherBeanB@298a5e20
2019-09-28 17:51:37.731 [main] INFO  com.epam.trainings.mvc.commands.CheckLifecycleCommand - com.epam.trainings.mvc.model.otherbeans.OtherBeanB@298a5e20
2019-09-28 17:51:37.731 [main] INFO  com.epam.trainings.mvc.commands.CheckLifecycleCommand - com.epam.trainings.mvc.model.otherbeans.OtherBeanC@2cb4893b
2019-09-28 17:51:37.731 [main] INFO  com.epam.trainings.mvc.commands.CheckLifecycleCommand - com.epam.trainings.mvc.model.otherbeans.OtherBeanC@2cb4893b
2019-09-28 17:51:37.733 [main] INFO  com.epam.trainings.mvc.commands.CheckLifecycleCommand - Unpacking data ...
2019-09-28 17:51:37.734 [main] INFO  com.epam.trainings.mvc.view.View - 1.Watch beans lifecycle
2019-09-28 17:53:41.666 [main] INFO  com.epam.trainings.mvc.view.View - 1.Watch beans lifecycle
2019-09-28 17:53:42.578 [main] INFO  com.epam.trainings.mvc.commands.CheckLifecycleCommand - com.epam.trainings.mvc.model.otherbeans.OtherBeanA@2ddc9a9f
2019-09-28 17:53:42.578 [main] INFO  com.epam.trainings.mvc.commands.CheckLifecycleCommand - com.epam.trainings.mvc.model.otherbeans.OtherBeanA@2ddc9a9f
2019-09-28 17:53:42.579 [main] INFO  com.epam.trainings.mvc.commands.CheckLifecycleCommand - com.epam.trainings.mvc.model.otherbeans.OtherBeanB@298a5e20
2019-09-28 17:53:42.579 [main] INFO  com.epam.trainings.mvc.commands.CheckLifecycleCommand - com.epam.trainings.mvc.model.otherbeans.OtherBeanB@298a5e20
2019-09-28 17:53:42.579 [main] INFO  com.epam.trainings.mvc.commands.CheckLifecycleCommand - com.epam.trainings.mvc.model.otherbeans.OtherBeanC@2cb4893b
2019-09-28 17:53:42.579 [main] INFO  com.epam.trainings.mvc.commands.CheckLifecycleCommand - com.epam.trainings.mvc.model.otherbeans.OtherBeanC@2cb4893b
2019-09-28 17:53:42.580 [main] INFO  com.epam.trainings.mvc.commands.CheckLifecycleCommand - Unpacking data ...
2019-09-28 17:53:42.581 [main] INFO  com.epam.trainings.mvc.view.View - 1.Watch beans lifecycle
2019-09-28 17:54:10.517 [main] INFO  com.epam.trainings.mvc.view.View - 1.Watch beans lifecycle
2019-09-28 17:54:11.676 [main] INFO  com.epam.trainings.mvc.commands.CheckLifecycleCommand - com.epam.trainings.mvc.model.otherbeans.OtherBeanA@2ddc9a9f
2019-09-28 17:54:11.677 [main] INFO  com.epam.trainings.mvc.commands.CheckLifecycleCommand - com.epam.trainings.mvc.model.otherbeans.OtherBeanA@2ddc9a9f
2019-09-28 17:54:11.677 [main] INFO  com.epam.trainings.mvc.commands.CheckLifecycleCommand - com.epam.trainings.mvc.model.otherbeans.OtherBeanB@298a5e20
2019-09-28 17:54:11.678 [main] INFO  com.epam.trainings.mvc.commands.CheckLifecycleCommand - com.epam.trainings.mvc.model.otherbeans.OtherBeanB@298a5e20
2019-09-28 17:54:11.678 [main] INFO  com.epam.trainings.mvc.commands.CheckLifecycleCommand - com.epam.trainings.mvc.model.otherbeans.OtherBeanC@2cb4893b
2019-09-28 17:54:11.678 [main] INFO  com.epam.trainings.mvc.commands.CheckLifecycleCommand - com.epam.trainings.mvc.model.otherbeans.OtherBeanC@2cb4893b
2019-09-28 17:54:11.679 [main] INFO  com.epam.trainings.mvc.commands.CheckLifecycleCommand - Unpacking data ...
2019-09-28 17:54:11.680 [main] INFO  com.epam.trainings.mvc.view.View - 1.Watch beans lifecycle
2019-09-28 17:54:29.155 [main] INFO  com.epam.trainings.mvc.view.View - 1.Watch beans lifecycle
2019-09-28 17:54:30.212 [main] INFO  com.epam.trainings.mvc.commands.CheckLifecycleCommand - com.epam.trainings.mvc.model.otherbeans.OtherBeanA@2ddc9a9f
2019-09-28 17:54:30.219 [main] INFO  com.epam.trainings.mvc.commands.CheckLifecycleCommand - com.epam.trainings.mvc.model.otherbeans.OtherBeanA@2ddc9a9f
2019-09-28 17:54:30.219 [main] INFO  com.epam.trainings.mvc.commands.CheckLifecycleCommand - com.epam.trainings.mvc.model.otherbeans.OtherBeanB@298a5e20
2019-09-28 17:54:30.220 [main] INFO  com.epam.trainings.mvc.commands.CheckLifecycleCommand - com.epam.trainings.mvc.model.otherbeans.OtherBeanB@298a5e20
2019-09-28 17:54:30.220 [main] INFO  com.epam.trainings.mvc.commands.CheckLifecycleCommand - com.epam.trainings.mvc.model.otherbeans.OtherBeanC@2cb4893b
